{
	"spring.rabbitmq.username": "guest",
	"spring.rabbitmq.password": "guest",

	"spring.cloud.config.username": "cloud_admin",
	"spring.cloud.config.password": "leDSgL+h27HEUEXl4cTuVw==",
	"eureka-username": "cloud_admin",
	"eureka-password": "leDSgL+h27HEUEXl4cTuVw==",
	"config_user": "cloud_admin",
	"config_password": "leDSgL+h27HEUEXl4cTuVw==",
	"security.user.name": "cloud_admin",
	"security.user.password": "leDSgL+h27HEUEXl4cTuVw==",
	"eureka.instance.metadataMap.user.name": "cloud_admin",
	"eureka.instance.metadataMap.user.password": "leDSgL+h27HEUEXl4cTuVw==",
	"spring.boot.admin.client.metadata.user.name": "cloud_admin",
	"spring.boot.admin.client.metadata.user.password": "leDSgL+h27HEUEXl4cTuVw==",
	"spring.boot.admin.username": "cloud_admin",
	"spring.boot.admin.password": "leDSgL+h27HEUEXl4cTuVw==",
	
	"amazon.aws.accesskey": "AKIAZCQT6RIYA6ITWEYL",
	"amazon.aws.secretkey": "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",
	"jsa.aws.accessKeyId": "AKIAZCQT6RIYA6ITWEYL",
	"jsa.aws.secretAccessKey": "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",

	"deloitte.insurcloud.application.guidewire.username": "ms_integration",
	"deloitte.insurcloud.application.guidewire.password": "msIntegration",
	"deloitte.insurcloud.application.ms.ws.username": "gw_integration",
	"deloitte.insurcloud.application.ms.ws.password": "gwMSintegration",

	"spring.datasource.username": "msdbuser",
	"spring.datasource.password": "msdbuser",
	"ot.auth.username": "gw-ot-int",
	"ot.auth.password": "RPxF5xhHdzSq",
	"deloitte.insurcloud.application.opentext.comserver.username":"tenantadmin@strs.role",
	"deloitte.insurcloud.application.opentext.comserver.password":"strs",

	"security.oauth2.client.clientId": "IKR0s7DZZ0HqESG3iB2cGvzx8iOjzUdR",
	"security.oauth2.client.clientSecret": "wDIBYMCSwiLmlfdyTgOwa-QjohKe3ERMVF5JVejUvEIojV7-RjjTxkGJdxe8wqPk",
	"insurcloud.service.ldap.ldapPassword": "yfonbK4IPn62JZJ6"
}