{
  "deloitte.insurcloud.application.external.mto.service.clientaccountnr": "00045-001",
  "deloitte.insurcloud.application.external.mto.service.useraccountnr": "12078-001",
  "deloitte.insurcloud.application.external.mto.service.username": "personte",
  "deloitte.insurcloud.application.external.mto.service.password": "Ministry9"
}