{
	"spring.cloud.stream.binders.translatorRefreshBinder.environment.spring.rabbitmq.username": "guest",
	"spring.cloud.stream.binders.translatorRefreshBinder.environment.spring.rabbitmq.password": "guest"
}