{
  "ws.audatexassignmentservice.responseroute.authorization.clientid": "0633zPf5ZGiRsCAiL3l6r1dnhE8qDotz",
  "ws.audatexassignmentservice.responseroute.authorization.secret": "9bUeXfAixt3NvpZ_H6_oFn8T_DA2J1vqgZZcGaEhAkO-Y_YJf6dIpzBbBN8FGjQU",
  "ws.audatexauthenticationservice.clientid": "b2b.fnol",
  "ws.audatexauthenticationservice.clientsecret": "fnol-secret",
  "ws.audatexauthenticationservice.password": "CFL40219",
  "ws.audatexauthenticationservice.userid": "cfl_fnol_demo",
  "ws.importassignmentservice.password": "commonwell.test",
  "ws.importassignmentservice.userid": "commonwell.test"
}